{"count":898,"next":"https://pokeapi.co/api/v2/pokemon-species/?offset=110&limit=10","previous":"https://pokeapi.co/api/v2/pokemon-species/?offset=90&limit=10","results":[{"name":"electrode","url":"https://pokeapi.co/api/v2/pokemon-species/101/"},{"name":"exeggcute","url":"https://pokeapi.co/api/v2/pokemon-species/102/"},{"name":"exeggutor","url":"https://pokeapi.co/api/v2/pokemon-species/103/"},{"name":"cubone","url":"https://pokeapi.co/api/v2/pokemon-species/104/"},{"name":"marowak","url":"https://pokeapi.co/api/v2/pokemon-species/105/"},{"name":"hitmonlee","url":"https://pokeapi.co/api/v2/pokemon-species/106/"},{"name":"hitmonchan","url":"https://pokeapi.co/api/v2/pokemon-species/107/"},{"name":"lickitung","url":"https://pokeapi.co/api/v2/pokemon-species/108/"},{"name":"koffing","url":"https://pokeapi.co/api/v2/pokemon-species/109/"},{"name":"weezing","url":"https://pokeapi.co/api/v2/pokemon-species/110/"}]}